<svg xmlns="http://www.w3.org/2000/svg" width="25.74" height="110.683" viewBox="0 0 25.74 110.683">
  <g id="Raggruppa_6583" data-name="Raggruppa 6583" transform="translate(15332.531 12891.083)">
    <path id="Tracciato_3710" data-name="Tracciato 3710" d="M319.74,52.069A12.87,12.87,0,1,1,306.87,39.2a12.87,12.87,0,0,1,12.87,12.87" transform="translate(-15626.531 -12930.282)" fill="#007fc1" fill-rule="evenodd"/>
    <path id="Tracciato_3711" data-name="Tracciato 3711" d="M319.74,231.27a12.87,12.87,0,1,1-12.87-12.87,12.87,12.87,0,0,1,12.87,12.87" transform="translate(-15626.531 -13068.299)" fill="#007fc1" fill-rule="evenodd"/>
    <path id="Tracciato_3712" data-name="Tracciato 3712" d="M319.74,421.67a12.87,12.87,0,1,1-12.87-12.87,12.87,12.87,0,0,1,12.87,12.87" transform="translate(-15626.531 -13214.94)" fill="#007fc1" fill-rule="evenodd"/>
  </g>
</svg>
