<svg xmlns="http://www.w3.org/2000/svg" width="56.508" height="56.506" viewBox="0 0 56.508 56.506">
  <g id="Group_1468" data-name="Group 1468" transform="translate(-4386 163.284)">
    <g id="Group_1467" data-name="Group 1467" transform="translate(4311 -208)">
      <g id="Raggruppa_1472" data-name="Raggruppa 1472" transform="translate(36.781)">
        <g id="Raggruppa_1470" data-name="Raggruppa 1470" transform="translate(38.219 44.716)">
          <g id="Ellisse_115" data-name="Ellisse 115" transform="translate(0 0)" fill="#fff" stroke="#f8c501" stroke-width="2">
            <ellipse cx="28.254" cy="28.253" rx="28.254" ry="28.253" stroke="none"/>
            <ellipse cx="28.254" cy="28.253" rx="27.254" ry="27.253" fill="none"/>
          </g>
        </g>
      </g>
      <g id="Layer_2" transform="translate(79.999 50)">
        <g id="Raggruppa_1464" data-name="Raggruppa 1464">
          <circle id="Ellisse_158" data-name="Ellisse 158" cx="23.502" cy="23.502" r="23.502" transform="translate(0 0)" fill="#f8c501"/>
          <circle id="Ellisse_159" data-name="Ellisse 159" cx="3.483" cy="3.483" r="3.483" transform="translate(10.226 14.912)" fill="#333"/>
          <circle id="Ellisse_160" data-name="Ellisse 160" cx="3.483" cy="3.483" r="3.483" transform="translate(29.811 14.912)" fill="#333"/>
          <path id="Tracciato_1247" data-name="Tracciato 1247" d="M8.8,23.13a23.669,23.669,0,0,0,11,2.63,26.415,26.415,0,0,0,11.387-2.63" transform="translate(3.51 9.227)" fill="none" stroke="#333" stroke-linecap="round" stroke-miterlimit="10" stroke-width="2"/>
        </g>
      </g>
    </g>
  </g>
</svg>
