<svg xmlns="http://www.w3.org/2000/svg" width="56.508" height="56.506" viewBox="0 0 56.508 56.506">
  <g id="Group_1460" data-name="Group 1460" transform="translate(-4115 69.506)">
    <g id="Raggruppa_1472" data-name="Raggruppa 1472" transform="translate(4076.781 -114.222)">
      <g id="Raggruppa_1470" data-name="Raggruppa 1470" transform="translate(38.219 44.716)">
        <g id="Ellisse_115" data-name="Ellisse 115" transform="translate(0 0)" fill="#fff" stroke="#f8c501" stroke-width="2">
          <ellipse cx="28.254" cy="28.253" rx="28.254" ry="28.253" stroke="none"/>
          <ellipse cx="28.254" cy="28.253" rx="27.254" ry="27.253" fill="none"/>
        </g>
      </g>
    </g>
    <g id="Layer_2" transform="translate(4119.999 -64.222)">
      <g id="Raggruppa_1462" data-name="Raggruppa 1462">
        <circle id="Ellisse_152" data-name="Ellisse 152" cx="23.502" cy="23.502" r="23.502" transform="translate(0 0)" fill="#f8c501"/>
        <circle id="Ellisse_153" data-name="Ellisse 153" cx="3.483" cy="3.483" r="3.483" transform="translate(10.212 14.912)" fill="#333"/>
        <circle id="Ellisse_154" data-name="Ellisse 154" cx="3.483" cy="3.483" r="3.483" transform="translate(29.797 14.912)" fill="#333"/>
        <path id="Tracciato_1246" data-name="Tracciato 1246" d="M8.79,27.957s2.126-6.827,11-6.827c8.645,0,11.387,6.827,11.387,6.827" transform="translate(3.506 8.429)" fill="none" stroke="#333" stroke-linecap="round" stroke-miterlimit="10" stroke-width="2"/>
      </g>
    </g>
  </g>
</svg>
