<svg xmlns="http://www.w3.org/2000/svg" width="56.508" height="56.506" viewBox="0 0 56.508 56.506">
  <g id="Group_1464" data-name="Group 1464" transform="translate(-150.492 -46.494)">
    <g id="Raggruppa_1472" data-name="Raggruppa 1472" transform="translate(112.273 1.778)">
      <g id="Raggruppa_1470" data-name="Raggruppa 1470" transform="translate(38.219 44.716)">
        <g id="Ellisse_115" data-name="Ellisse 115" transform="translate(0 0)" fill="#fff" stroke="#f8c501" stroke-width="2">
          <ellipse cx="28.254" cy="28.253" rx="28.254" ry="28.253" stroke="none"/>
          <ellipse cx="28.254" cy="28.253" rx="27.254" ry="27.253" fill="none"/>
        </g>
      </g>
    </g>
    <g id="Layer_2" transform="translate(155.491 51.778)">
      <g id="Raggruppa_1461" data-name="Raggruppa 1461">
        <circle id="Ellisse_149" data-name="Ellisse 149" cx="23.502" cy="23.502" r="23.502" transform="translate(0 0)" fill="#f8c501"/>
        <circle id="Ellisse_150" data-name="Ellisse 150" cx="3.483" cy="3.483" r="3.483" transform="translate(10.212 14.912)" fill="#333"/>
        <circle id="Ellisse_151" data-name="Ellisse 151" cx="3.483" cy="3.483" r="3.483" transform="translate(29.797 14.912)" fill="#333"/>
        <path id="Tracciato_1245" data-name="Tracciato 1245" d="M20.2,31.2A12.675,12.675,0,0,1,7.843,21.926,1.4,1.4,0,0,1,8.85,20.22c.741-.2,3.707-.21,11.345-.21,7.5,0,11.093,0,11.821.238A1.4,1.4,0,0,1,32.9,22.01C31.848,25.186,27.833,31.2,20.2,31.2Z" transform="translate(3.11 7.982)" fill="#333"/>
      </g>
    </g>
  </g>
</svg>
