<svg xmlns="http://www.w3.org/2000/svg" width="24.469" height="21.716" viewBox="0 0 24.469 21.716">
  <g id="like-4" transform="translate(0.251 0.252)">
    <g id="Raggruppa_980" data-name="Raggruppa 980" transform="translate(0 0.001)">
      <path id="Tracciato_1191" data-name="Tracciato 1191" d="M22.219,31.916a6.037,6.037,0,0,0-9.638.693,9.188,9.188,0,0,0-.6.967,9.18,9.18,0,0,0-.6-.967,6.037,6.037,0,0,0-9.638-.693A7.264,7.264,0,0,0,0,36.741a8.9,8.9,0,0,0,2.45,5.837,54.548,54.548,0,0,0,6.132,5.729c.927.79,1.887,1.608,2.908,2.5l.031.027a.7.7,0,0,0,.925,0l.031-.027c1.021-.893,1.98-1.711,2.908-2.5a54.542,54.542,0,0,0,6.132-5.729,8.9,8.9,0,0,0,2.45-5.837A7.264,7.264,0,0,0,22.219,31.916ZM14.474,47.238c-.8.681-1.622,1.382-2.49,2.137-.868-.754-1.69-1.455-2.49-2.137C4.622,43.087,1.4,40.345,1.4,36.741a5.862,5.862,0,0,1,1.4-3.9,4.687,4.687,0,0,1,3.564-1.6,4.734,4.734,0,0,1,3.875,2.181,8.324,8.324,0,0,1,1.075,2.137.7.7,0,0,0,1.335,0,8.325,8.325,0,0,1,1.075-2.137,4.635,4.635,0,0,1,7.439-.577,5.862,5.862,0,0,1,1.4,3.9C22.563,40.345,19.345,43.087,14.474,47.238Z" transform="translate(0 -29.836)" fill="#fff" stroke="#fff" stroke-width="0.5"/>
    </g>
  </g>
</svg>
