<svg id="Group_1050" data-name="Group 1050" xmlns="http://www.w3.org/2000/svg" width="35.201" height="35.202" viewBox="0 0 35.201 35.202">
  <path id="Path_1220" data-name="Path 1220" d="M17.6,0A17.669,17.669,0,0,0,0,17.6a17.464,17.464,0,0,0,2.465,8.938l-2.412,7.3a1.031,1.031,0,0,0,1.3,1.3l7.3-2.412A17.464,17.464,0,0,0,17.6,35.2,17.6,17.6,0,1,0,17.6,0Zm0,31.007A3.094,3.094,0,1,1,20.7,27.913,3.1,3.1,0,0,1,17.6,31.007ZM21.95,16.17l-2.285,2.285v2.24a2.063,2.063,0,1,1-4.125,0v-2.24a4.1,4.1,0,0,1,1.209-2.917l2.285-2.285a2.194,2.194,0,0,0,.631-1.745A2.16,2.16,0,0,0,17.508,9.35a1.971,1.971,0,0,0-1.968,1.968,2.063,2.063,0,0,1-4.125,0,6.1,6.1,0,0,1,6.093-6.093,6.289,6.289,0,0,1,6.282,6.282A6.266,6.266,0,0,1,21.95,16.17Z" transform="translate(-0.002)" fill="#fff"/>
</svg>
