<svg xmlns="http://www.w3.org/2000/svg" width="35.048" height="30.241" viewBox="0 0 35.048 30.241">
  <g id="Raggruppa_1448" data-name="Raggruppa 1448" transform="translate(-16.745 -17.411)">
    <g id="send-2" transform="translate(16.745 17.411)">
      <g id="Raggruppa_626" data-name="Raggruppa 626" transform="translate(0 0)">
        <path id="Tracciato_590" data-name="Tracciato 590" d="M32.961,47.105,4.684,35.372A3.384,3.384,0,0,0,.107,39.334L2.624,49.2H14.947a1.027,1.027,0,0,1,0,2.054H2.624L.107,61.128A3.384,3.384,0,0,0,4.684,65.09L32.961,53.357a3.384,3.384,0,0,0,0-6.252Z" transform="translate(-0.001 -35.111)" fill="#838383"/>
      </g>
    </g>
  </g>
</svg>
