<svg id="Group_717" data-name="Group 717" xmlns="http://www.w3.org/2000/svg" width="988.759" height="533.693" viewBox="0 0 988.759 533.693">
  <g id="Group_716" data-name="Group 716" transform="translate(0 0)">
    <path id="Path_612" data-name="Path 612" d="M157.008,801.087S21.962,657.567,116.658,523.69c35.335-49.955,125.544-78.008,208.469-55.25,48.981,13.443,123.266,11.459,195.849-107.029,98.984-161.583,509.883-88.11,429.678,194.994-33.784,119.25,92.137,124.679,29.764,244.936Z" transform="translate(-39.813 -277.042)" fill="#ebf3fa"/>
    <g id="Group_693" data-name="Group 693" transform="translate(64.261 119.556)">
      <g id="Group_692" data-name="Group 692" transform="translate(0 50.269)">
        <path id="Path_613" data-name="Path 613" d="M885.475,492.285,591.319,738.374,436.551,606.529c-28.966,25.509-73.7,64.88-118.71,104.39-30.757,27-55.657,48.818-75.841,66.476l-140.572-.164C140.41,744.042,297.366,606.117,403.106,512.9l32.332-28.5L591.891,617.686,821.528,425.572Z" transform="translate(-101.428 -425.572)" fill="#d6e8fc"/>
      </g>
      <path id="Path_614" data-name="Path 614" d="M698.664,401.611l140.1,140.523,39.575-160.528Z" transform="translate(-15.802 -381.606)" fill="#d6e8fc"/>
    </g>
    <g id="Group_707" data-name="Group 707" transform="translate(233.16 322.736)">
      <g id="Group_701" data-name="Group 701" transform="translate(25.843)">
        <g id="Group_699" data-name="Group 699">
          <path id="Path_615" data-name="Path 615" d="M300.609,665.206a259.615,259.615,0,0,0-3-31.866c-2.152-12.443-4.089-19.6-4.11-19.677-.284-1.094-4.379-5.521-13.484-5.385s-8.24,5.943-8.24,5.943h0a1.871,1.871,0,0,0,.065.516,278.722,278.722,0,0,1,8.084,69.726c-.006.55-.067,1.5-.029,2.131,0,0,21.1.545,21.1,0C301.732,683.175,301.373,673.7,300.609,665.206Z" transform="translate(-271.751 -552.289)" fill="#b7d3f3"/>
          <path id="Path_616" data-name="Path 616" d="M302.966,684.27c-.006.545-.294.982-.645.982h-.008c-.351-.009-.63-.446-.635-.982H283.6c-.006.545-.294.982-.645.982h-.009c-.357-.009-.64-.46-.636-1.011a273.09,273.09,0,0,0-1.5-30.888c-2.4-23.019-6.848-38.4-6.911-38.616a1.924,1.924,0,0,1-.065-.517s-.863-5.806,8.24-5.943,13.2,4.291,13.484,5.385c.017.057,1.114,4.112,2.571,11.4.484,2.414,1.005,5.183,1.54,8.277a259.922,259.922,0,0,1,3,31.866C303.432,673.7,303.7,680.852,302.966,684.27Z" transform="translate(-271.456 -552.289)" fill="#d2e3fc"/>
          <path id="Path_617" data-name="Path 617" d="M280.073,676.326h70.888s-1.651-6.681-42.7-5.686C279.2,671.344,280.073,676.326,280.073,676.326Z" transform="translate(-270.558 -543.362)" fill="#c5dcf8"/>
          <g id="Group_694" data-name="Group 694" transform="translate(3.746 133.998)">
            <path id="Path_618" data-name="Path 618" d="M275.027,745.247c8.219-41.608,6.106-67.141,6.1-67.462-.021-.64,1.159-1.222,1.8-1.243s3.479-.19,3.807.359c.43.718,2.086,32.176-10.163,68.346Z" transform="translate(-275.027 -676.505)" fill="#b7d3f3"/>
          </g>
          <g id="Group_695" data-name="Group 695" transform="translate(57.915 133.998)">
            <path id="Path_619" data-name="Path 619" d="M334.421,745.247c-8.219-41.608-6.106-67.141-6.1-67.462.021-.64-1.159-1.222-1.8-1.243s-3.479-.19-3.809.359c-.43.718-2.084,32.176,10.165,68.346Z" transform="translate(-322.404 -676.505)" fill="#b7d3f3"/>
          </g>
          <g id="Group_696" data-name="Group 696" transform="translate(71.032 133.998)">
            <path id="Path_620" data-name="Path 620" d="M345.893,745.247c-8.219-41.608-6.106-67.141-6.1-67.462.021-.64-1.159-1.222-1.8-1.243s-3.48-.19-3.809.359c-.43.718-2.084,32.176,10.165,68.346Z" transform="translate(-333.876 -676.505)" fill="#b7d3f3"/>
          </g>
          <g id="Group_697" data-name="Group 697" transform="translate(16.951 133.998)">
            <path id="Path_621" data-name="Path 621" d="M286.576,745.247c8.219-41.608,6.106-67.141,6.1-67.462-.021-.64,1.16-1.222,1.8-1.243s3.48-.19,3.809.359c.43.718,2.084,32.176-10.165,68.346Z" transform="translate(-286.576 -676.505)" fill="#b7d3f3"/>
          </g>
          <rect id="Rectangle_344" data-name="Rectangle 344" width="73.792" height="3.859" rx="1.27" transform="translate(8.105 131.237)" fill="#b7d3f3"/>
          <g id="Group_698" data-name="Group 698" transform="translate(13.819)">
            <path id="Path_622" data-name="Path 622" d="M340.442,622.114,364,617.01l1.388,3.382s-26,15.471-28.436,14.714S340.442,622.114,340.442,622.114Z" transform="translate(-276.305 -551.036)" fill="#ffb27d"/>
            <path id="Path_623" data-name="Path 623" d="M321.262,717.035a2.094,2.094,0,0,0-.373,2.24l0,.011c.541,1.492,2.326,3.159,4.4,4.824.264.214.5.408.705.588.054.047.107.095.158.142l.122.111c1.933,1.781,1.206,2.19,4.679,5.8,3.959,4.121,6.685,4.2,7.46,3.819.656-.319-.677-2.505-2.154-4.961-.071-.118-.141-.238-.215-.358-.2-.326-.392-.657-.587-.986-1.731-2.956-1.287-4.342-.877-8.742.334-3.574,5.561-19.969,5.561-19.969l-7.589-1.308s-2.284,13.056-4.8,15.066c-1.347,1.073-2.854,1.086-4.148,1.88-.091.056-.181.112-.269.17A9.964,9.964,0,0,0,321.262,717.035Z" transform="translate(-278.549 -539.389)" fill="#ffb27d"/>
            <path id="Path_624" data-name="Path 624" d="M321.262,714.911a2.094,2.094,0,0,0-.373,2.24l0,.011c.662,1.491,2.4,3.149,4.405,4.808.262.217.493.417.7.6.054.047.107.095.158.142l.122.111c1.933,1.781,1.206,2.19,4.679,5.8,3.959,4.121,6.685,4.2,7.46,3.819.656-.319-.677-2.505-2.154-4.961a16.87,16.87,0,0,1-7.058-5.2c-2.384-3.042-3.974-6.952-5.6-9.217-.091.056-.181.112-.269.17A9.964,9.964,0,0,0,321.262,714.911Z" transform="translate(-278.549 -537.264)" fill="#1c468a"/>
            <path id="Path_625" data-name="Path 625" d="M375.469,712.587c.469,2.342,3.807,1.951,7.537,1.039s2.844.172,8.152-.416,6.917-2.567,7.08-3.356c.145-.7-2.479-.948-5.293-1.271-.353-.04-.709-.083-1.064-.128-3.176-.4-5.5-2.448-8.388-4.131-2.734-1.6-6.812-8.092-6.812-8.092l-7.281.576s3.82,5.8,5.3,8.326a8.8,8.8,0,0,1,.715,4.961A9.378,9.378,0,0,0,375.469,712.587Z" transform="translate(-271.57 -539.678)" fill="#ffb27d"/>
            <path id="Path_626" data-name="Path 626" d="M382.259,712.077c3.731-.911,2.844.172,8.152-.416s6.917-2.567,7.08-3.356c.145-.7-2.479-.948-5.293-1.271l-.026.054a14.968,14.968,0,0,1-7.6,2.363c-3.6.087-7.417-.944-9.9-.9a9.378,9.378,0,0,0,.056,2.491C375.191,713.38,378.529,712.989,382.259,712.077Z" transform="translate(-270.823 -538.129)" fill="#1c468a"/>
            <path id="Path_627" data-name="Path 627" d="M360.539,617.642s1.734-4.25,3.643-4.424,7.98-1.127,8.413-.26a6,6,0,0,1-1.3,5.117c-1.3,1.127-9.368,2.949-9.368,2.949Z" transform="translate(-272.84 -551.669)" fill="#ffb27d"/>
            <path id="Path_628" data-name="Path 628" d="M353.437,671.282l-15.69,42.227a14.342,14.342,0,0,1-4.722-.432,20.344,20.344,0,0,1-4.563-2.222s3.892-40.546,11.029-48.98S353.437,671.282,353.437,671.282Z" transform="translate(-277.439 -544.928)" fill="#163560"/>
            <path id="Path_629" data-name="Path 629" d="M297.115,656.44s45.087-15.246,55.141-12S392.5,707.749,392.5,707.749a5.821,5.821,0,0,1-2.541,1.6c-1.73.649-5.918.607-5.918.607s-27.247-23.355-30.49-30.166-4.542-13.3-7.785-12.651-41.843,15.9-50.6,6.812-6.467-20.883-6.467-20.883Z" transform="translate(-283.178 -547.169)" fill="#1c468a"/>
            <path id="Path_630" data-name="Path 630" d="M323.2,561.078a10.948,10.948,0,0,0-5.918-1.132,2.777,2.777,0,0,1,1.249-.592,9.164,9.164,0,0,0-3.275.854c-14.091-5.43-16.306,15.319-16.009,20.139s.329,10.367-6.7,14.69c-13.84,8.507-2.162,23.356-2.162,23.356.109.065,6.439,10.8,6.439,10.8-.356-3.9,17.617-24.451,26.994-30.607,2.282-3.36,3.094-9.3,3.155-9.764-.394,4.707-1.2,7.347-1.92,8.834C332.988,590.349,328.366,564.014,323.2,561.078Z" transform="translate(-283.559 -559.309)" fill="#b5453c"/>
            <path id="Path_631" data-name="Path 631" d="M320.222,595.671c.047.021-4.527,2.4-7.968,1.456-3.237-.883-5.351-5.079-5.306-5.089,1.371-.272,1.765-2.155,1.737-10.249l.62.122,10.418,2.063s-.237,3.279-.245,6.368C319.47,592.935,319.628,595.394,320.222,595.671Z" transform="translate(-280.524 -556.086)" fill="#ffb27d"/>
            <path id="Path_632" data-name="Path 632" d="M319.426,583.958s-.237,3.279-.245,6.367c-5.829-.165-8.911-5.482-10.174-8.43Z" transform="translate(-280.228 -556.071)" fill="#ed975d"/>
            <path id="Path_633" data-name="Path 633" d="M308.553,583.587s-3.055-4.827-3.789-8.955c-.524-2.948.978-13.871,11.955-12.3a14.917,14.917,0,0,1,6.184,2.338c2.384,1.61,5.823,5.086,1.978,14.617l-1,3.221Z" transform="translate(-280.849 -558.897)" fill="#b5453c"/>
            <path id="Path_634" data-name="Path 634" d="M321.573,589.176s-13.794.227-13.8-8.365-1.8-14.349,7.011-14.858S325.3,568.722,326,571.588,325.161,588.9,321.573,589.176Z" transform="translate(-280.428 -558.364)" fill="#ffb27d"/>
            <path id="Path_635" data-name="Path 635" d="M321.618,565.981s-3.777,10.081-9.572,11.571-8.31-.062-8.31-.062a16.415,16.415,0,0,0,5.368-9.7S318.77,561.183,321.618,565.981Z" transform="translate(-280.984 -558.603)" fill="#b5453c"/>
            <path id="Path_636" data-name="Path 636" d="M318.558,566.684s2.82,2.25,3.508,4.439,1,6.692,2.31,6.539c0,0,2.845-6.851-.352-10.727C320.632,562.824,318.558,566.684,318.558,566.684Z" transform="translate(-278.859 -558.487)" fill="#b5453c"/>
            <path id="Path_637" data-name="Path 637" d="M292.436,631.5c-1.361-5.705,3.268-16.776,8.1-25.94,4.384-8.307,8.934-15.044,9.342-14.8,11.561,6.862,12.606,1.157,12.606,1.157h0s10.5,1.394,13.476,6.512c3.689,6.351,7.673,24.1,11.632,27.457-.608,1.859-.348,2.85.3,5.155.14.494.29.964.458,1.409a27.239,27.239,0,0,0,1.987,4.081c-2.012,1.222-5.9,3.547-8.759,1.875-4.364-2.554-7.769-10.329-9.686-13.425l-.022-.034c-4.164,23.576,1.5,28.946-1.369,31.431-3.026,2.625-7.352-1.25-16.867,2.874-6.242,2.707-14.9,6.621-20.733,7.3-3.057.359-5.34-.173-6.084-2.238C284.65,658.309,295.031,642.371,292.436,631.5Z" transform="translate(-283.453 -554.802)" fill="#1c468a"/>
            <path id="Path_638" data-name="Path 638" d="M317.141,581.79s.257,1.091,2.973.923c0,0,2.28-.141,2.21-1.34A7.332,7.332,0,0,0,317.141,581.79Z" transform="translate(-279.062 -556.186)" fill="#fff"/>
            <path id="Path_639" data-name="Path 639" d="M286.812,661.12c.744,2.065,3.027,2.6,6.084,2.238,4.035-1.757,21.468-8.511,21.272-13.087-.289-6.776-3.351-6.992-1.189-15.354,1.737-6.715-14.371-19.2-16.94-21.914-4.831,9.165-4.965,9.6-3.6,15.3C295.031,639.181,284.65,655.118,286.812,661.12Z" transform="translate(-283.453 -551.611)" fill="#163560"/>
            <path id="Path_640" data-name="Path 640" d="M285.226,639.874a25.548,25.548,0,0,1,8.431-7.791c-.488-1.258,13-17.8,13-20.36,0-2.594,3.6-20.972,3.6-20.972s-11.242.7-15.134,6.123C290.259,603.662,280.15,629.787,285.226,639.874Z" transform="translate(-283.837 -554.801)" fill="#1c468a"/>
            <path id="Path_641" data-name="Path 641" d="M293.5,626.9l22.464,5.861-2.108,3.785s-27.338-.191-28.787-1.855S293.5,626.9,293.5,626.9Z" transform="translate(-283.681 -549.618)" fill="#ffb27d"/>
            <path id="Path_642" data-name="Path 642" d="M326.2,620.682c1.916,3.1,5.321,10.871,9.686,13.425,2.862,1.672,6.747-.653,8.759-1.875a27.239,27.239,0,0,1-1.987-4.081c-1.605.367-3.565.837-4.828,1.218C335.367,630.114,326.2,620.682,326.2,620.682Z" transform="translate(-277.764 -550.51)" fill="#163560"/>
            <path id="Path_643" data-name="Path 643" d="M312.337,632.227s7.053-2,8.734-1.53,7.438,4.28,6.628,5.314-5.882-.62-8.215-.306-4.139,1.465-5.819,1.215a19.416,19.416,0,0,1-3.437-.909Z" transform="translate(-280.053 -549.084)" fill="#ffb27d"/>
            <path id="Path_644" data-name="Path 644" d="M312.073,632.385a26.5,26.5,0,0,0,4.433-2.782.274.274,0,0,1,.429.049c.263.415.509,1.215-.7,2.012A6.506,6.506,0,0,1,312.073,632.385Z" transform="translate(-279.789 -549.243)" fill="#ffb27d"/>
          </g>
        </g>
        <g id="Group_700" data-name="Group 700" transform="translate(45.792 57.223)">
          <path id="Path_645" data-name="Path 645" d="M344.712,641.036H311.8a2.623,2.623,0,0,1,2.623-2.624h30.288Z" transform="translate(-311.801 -605.191)" fill="#ed7d2b"/>
          <path id="Path_646" data-name="Path 646" d="M342.075,609.357h50.884L380.754,645.2H329.539Z" transform="translate(-309.258 -609.357)" fill="#ed7d2b"/>
          <path id="Path_647" data-name="Path 647" d="M393.615,609.357,381.408,645.2H330.2l12.535-35.843Z" transform="translate(-309.164 -609.357)" fill="#f99746"/>
          <path id="Path_648" data-name="Path 648" d="M362.3,625.053a3.308,3.308,0,0,1-3.052,2.479,1.909,1.909,0,0,1-1.907-2.479,3.307,3.307,0,0,1,3.052-2.48A1.909,1.909,0,0,1,362.3,625.053Z" transform="translate(-305.282 -607.462)" fill="#f9ddbf"/>
          <path id="Path_649" data-name="Path 649" d="M391.447,609.357,379.239,645.2H345.323c22.467-7.669,28.447-31.05,29.451-35.844Z" transform="translate(-306.995 -609.357)" fill="#ed893e"/>
        </g>
      </g>
      <g id="Group_706" data-name="Group 706" transform="translate(0 93.06)">
        <g id="Group_703" data-name="Group 703" transform="translate(7.423 5.533)">
          <g id="Group_702" data-name="Group 702">
            <path id="Path_650" data-name="Path 650" d="M256.58,749.686a1.314,1.314,0,0,0,1.3-1.069l6.391-36.224,9.193-52.1,2.57-14.568-6.547-.187L268.354,654l-7.976,59.431-4.729,35.227A.922.922,0,0,0,256.58,749.686Z" transform="translate(-255.641 -645.539)" fill="#95c0f4"/>
          </g>
          <path id="Path_651" data-name="Path 651" d="M266.76,654a9.393,9.393,0,0,1,5.113,6.3l2.57-14.568-6.547-.187Z" transform="translate(-254.047 -645.539)" fill="#78acea"/>
        </g>
        <g id="Group_705" data-name="Group 705" transform="translate(151.759 5.533)">
          <g id="Group_704" data-name="Group 704">
            <path id="Path_652" data-name="Path 652" d="M401.337,749.686a1.315,1.315,0,0,1-1.3-1.069l-6.39-36.224-9.193-52.1-2.571-14.568,6.548-.187L389.561,654l7.977,59.431,4.728,35.227A.922.922,0,0,1,401.337,749.686Z" transform="translate(-381.878 -645.539)" fill="#95c0f4"/>
          </g>
          <path id="Path_653" data-name="Path 653" d="M389.561,654a9.389,9.389,0,0,0-5.112,6.3l-2.571-14.568,6.548-.187Z" transform="translate(-381.878 -645.539)" fill="#78acea"/>
        </g>
        <rect id="Rectangle_345" data-name="Rectangle 345" width="175.658" height="11.439" rx="3.493" transform="translate(175.658 11.439) rotate(180)" fill="#78acea"/>
      </g>
    </g>
    <g id="Group_709" data-name="Group 709" transform="translate(626.808 304.694)">
      <path id="Path_654" data-name="Path 654" d="M617.3,635.369s-4.349,5.4-2.989,6.131,4.953,2.112,5.8,1.244,1.114-7.225,1.114-7.225Z" transform="translate(-590.481 -530.362)" fill="#ffb27d"/>
      <path id="Path_655" data-name="Path 655" d="M617.6,635.447a6.4,6.4,0,0,0-2.479,1.541c-.7.925-2.246,2.336-1.867,2.727s2.6-1.337,2.6-1.337Z" transform="translate(-590.603 -530.351)" fill="#ffb27d"/>
      <path id="Path_656" data-name="Path 656" d="M633.342,572.366S628.439,618,628,619.3c-.095.282-.479,1.727-1.021,3.805-.772,2.969-1.861,7.235-2.9,11.29-1.56,6.128-2.991,11.782-2.991,11.782l-4.257-1.4s-.22-22.179.873-27.285,4.6-36.486,6.367-40.709S633.342,572.366,633.342,572.366Z" transform="translate(-590.083 -539.395)" fill="#aec3ff"/>
      <g id="Group_708" data-name="Group 708" transform="translate(0 109.338)">
        <rect id="Rectangle_346" data-name="Rectangle 346" width="25.061" height="40.724" rx="5.721" transform="translate(0 24.403) rotate(-75.305)" fill="#a02e2e"/>
        <path id="Path_657" data-name="Path 657" d="M601.041,646.563l-3.073,11.721a6.579,6.579,0,0,0,1.593,6.182,6.472,6.472,0,0,0,1.757,1.323h0a6.418,6.418,0,0,0,1.331.511l26.69,7a6.582,6.582,0,0,0,8.015-4.683l3.076-11.722a6.587,6.587,0,0,0-4.685-8.016l-9.19-2.41.656-2.5a2.168,2.168,0,0,0-1.546-2.643l-1.007-.265-5.591-1.466-1.389-.364a2.167,2.167,0,0,0-2.645,1.545l-.656,2.5-5.322-1.4c-.212-.055-.421-.1-.63-.131h-.007a6.588,6.588,0,0,0-5.715,1.893h0A6.494,6.494,0,0,0,601.041,646.563Zm24.2-.441-9.552-2.5.656-2.5a.81.81,0,0,1,.987-.577l2.4.629,4.4,1.154,1.187.312a.832.832,0,0,1,.223.1.811.811,0,0,1,.354.891Z" transform="translate(-592.816 -639.156)" fill="#bc3f3f"/>
      </g>
      <path id="Path_658" data-name="Path 658" d="M619.8,642.356s1.187-2,.742-2.7-2.048,2.073-2.048,2.073,1.094-2.379.686-2.772-2.084,2.344-2.084,2.344,1.044-2.312.678-2.391-1.611,1.944-1.611,1.944.647-1.731.057-1.648-1.869,1.662-1.869,1.662Z" transform="translate(-590.437 -529.854)" fill="#ffb27d"/>
      <path id="Path_659" data-name="Path 659" d="M626.352,619.418c-.772,2.969-1.861,7.235-2.9,11.29a43.86,43.86,0,0,1-2.049-8.951c-.986-7.552,2.042-23.643,2.042-23.643Z" transform="translate(-589.453 -535.703)" fill="#9db0f4"/>
      <path id="Path_660" data-name="Path 660" d="M675.11,633.727s4.74,3.85,5.326,5.054,2.059,5.656,1.982,7.091-3.633-3.285-4.676-3.666,1.091,1.937.851,2.435-2.463-1.127-3.311-1.659-1.444-4.132-2.709-6.092S675.11,633.727,675.11,633.727Z" transform="translate(-582.126 -530.597)" fill="#ffb27d"/>
      <path id="Path_661" data-name="Path 661" d="M620.358,736.194h23.634c1.693-1.148-.456-12.375-.456-12.375s-6.451-2.448-7.565,2.529S627.755,732.9,624,733.511C621.427,733.928,620.615,735.34,620.358,736.194Z" transform="translate(-589.575 -517.767)" fill="#233862"/>
      <path id="Path_662" data-name="Path 662" d="M651.014,736.194h23.634c1.693-1.148-.457-12.375-.457-12.375s-6.45-2.448-7.563,2.529-8.216,6.555-11.973,7.162C652.083,733.928,651.271,735.34,651.014,736.194Z" transform="translate(-585.18 -517.767)" fill="#233862"/>
      <path id="Path_663" data-name="Path 663" d="M625.919,634.626s1.062,13.253,2.312,29.185c1.7,21.642,6.274,75.3,6.274,75.3s3,2.56,9.647,1.159a210.061,210.061,0,0,0,7.35-39.637c.026-.346.053-.7.078-1.044,1.574-21.507,4.021-66.8,4.021-66.8Z" transform="translate(-588.778 -530.731)" fill="#2b478b"/>
      <path id="Path_664" data-name="Path 664" d="M625.6,630.391s1.425,17.832,2.674,33.764l23.27,36.82c.026-.346.052-.7.078-1.044,1.574-21.507,4.021-66.8,4.021-66.8Z" transform="translate(-588.824 -531.075)" fill="#233862"/>
      <path id="Path_665" data-name="Path 665" d="M631.534,631.409s16.877,42.01,22.273,57.935c3.843,11.343,14.681,51.135,14.681,51.135a10.891,10.891,0,0,0,8.675-1.338s4.031-40.655-4.113-52.118c-4.322-6.082-1.074-63.222-18.595-63.711S631.534,631.409,631.534,631.409Z" transform="translate(-587.973 -532.093)" fill="#2b478b"/>
      <path id="Path_666" data-name="Path 666" d="M664.9,642.6c-7.037,3.97-37.186,3.882-38.581.765-3.12-6.958-3.9-42.318-2.431-53.164,0,0,.763-16.669,2.431-15.933,11.135-5.117,29.159-.47,29.159-.47,4.861,1.432,4.443,12.537,5.8,28.133.174,2.01.368,4.1.584,6.269.959,9.631,2.355,20.694,4.476,32.364C666.476,641.329,665.939,642.009,664.9,642.6Z" transform="translate(-589.173 -539.467)" fill="#aec3ff"/>
      <path id="Path_667" data-name="Path 667" d="M645.649,573.453c-.187,2.982-4.075,2.643-8.751,1.577s-2.982-3.822-2.982-3.822.069-2.119.365-4.657c.109-.923.242-1.9.42-2.856.082-.466.175-.926.28-1.37.611-2.624,9.339-.093,9.276.614C644.086,564.844,645.465,571.113,645.649,573.453Z" transform="translate(-587.674 -541.001)" fill="#ffb27d"/>
      <path id="Path_668" data-name="Path 668" d="M635.421,576.979l-.369-4.119,5.176.977-1.992,3.677Z" transform="translate(-587.469 -539.324)" fill="#233862"/>
      <path id="Path_669" data-name="Path 669" d="M634.363,568.252l-3.093,4.7a6.844,6.844,0,0,0,2.683,4.993l4.228-3.938S635.448,572.967,634.363,568.252Z" transform="translate(-588.011 -539.984)" fill="#9db0f4"/>
      <path id="Path_670" data-name="Path 670" d="M637.315,573.916s.878,3.144,2.57,4.587c0,0,6.6-1.775,8.176-5.158l-3.439-4.439S644.456,572.265,637.315,573.916Z" transform="translate(-587.144 -539.89)" fill="#9db0f4"/>
      <path id="Path_671" data-name="Path 671" d="M644.222,564.159A16.2,16.2,0,0,1,634.2,566.29c.109-.923.242-1.9.42-2.856,1.15-.279,2.112-.454,2.112-.454Z" transform="translate(-587.591 -540.74)" fill="#e2915a"/>
      <path id="Path_672" data-name="Path 672" d="M647.231,563.267c-2.053,5.654-9.551,4.21-12.742,3.3-.9-.255-1.456-.466-1.456-.466-.987-.448-1.292-2.17-1.205-4.344.169-4.3,1.869-10.38,2.845-11.843,1.467-2.2,3.914-4.443,11.186-1.324S649.865,556.023,647.231,563.267Z" transform="translate(-587.933 -543.023)" fill="#ffb27d"/>
      <path id="Path_673" data-name="Path 673" d="M652.728,560.869c-2.3,1.872-7.226,5.336-7.226,5.336a8.95,8.95,0,0,0,1.219-2.517,2.479,2.479,0,0,0,.09-.853,4.69,4.69,0,0,1,.675-2.61c.3-.488.409-.995.029-1.353-.623-.59-1.687-.048-2.384.43a1.409,1.409,0,0,1-1.537.039l-.009-.006c-1.961-1.228.2-3.392-1.389-5.189s-8.492-2.042-8.216-3.168c-2.354-1.331-.87-6.239-.828-6.5a25.455,25.455,0,0,0,7.6-.756c3.424-.86,7.2,1.34,8.4,2.247a1.917,1.917,0,0,0-.191-.837,1.777,1.777,0,0,1,.51,1.109c.051.053.074.089.058.1a2.275,2.275,0,0,1,1.08.25s-.293-.093-.43.081a.214.214,0,0,1-.059.047C654.7,549.958,654.631,559.313,652.728,560.869Z" transform="translate(-587.813 -543.529)" fill="#233862"/>
      <path id="Path_674" data-name="Path 674" d="M636.261,560.671s-.369.712-2.223.121c0,0-1.556-.5-1.3-1.315A5.239,5.239,0,0,1,636.261,560.671Z" transform="translate(-587.804 -541.244)" fill="#fff"/>
      <path id="Path_675" data-name="Path 675" d="M635.886,576.463s-4.129,52.181-4.072,56.528,4.576,8.946,4.576,8.946,3.6-3.941,4.3-8.1S638.7,577,638.7,577Z" transform="translate(-587.933 -538.807)" fill="#2a4e96"/>
      <path id="Path_676" data-name="Path 676" d="M651.424,573.554s6.667,1.595,11.937,11.718,9.432,30.541,11.948,35.931,4.241,22.36,4.241,22.36l-3.984,1.955s-9.618-17.394-11.04-23.1c-.771-3.086-12.53-27.79-12.53-27.79Z" transform="translate(-585.121 -539.224)" fill="#aec3ff"/>
      <path id="Path_677" data-name="Path 677" d="M660.818,639.183h-.007c-12.551-1.807-8.955-43.346-7.969-43.511s4.594,7.425,4.594,7.425l.344,1.685c.959,9.631,2.355,20.694,4.476,32.364C662.4,637.915,661.862,638.6,660.818,639.183Z" transform="translate(-585.095 -536.053)" fill="#9db0f4"/>
    </g>
    <g id="Group_712" data-name="Group 712" transform="translate(748.892 210.932)">
      <g id="Group_710" data-name="Group 710" transform="translate(15.404 136.486)">
        <path id="Path_678" data-name="Path 678" d="M799,713.375s5.225,4.769,4.206,8.158-5.736,5.647-6.374,9.79-3.185,6.4-5.48,6.4H780.412s-1.689-2.914,2.39-3.794,5.617-5.745,5.362-10.263a79.683,79.683,0,0,1,.382-10.543l8.668-2.008Z" transform="translate(-704.167 -562.226)" fill="#233862"/>
        <path id="Path_679" data-name="Path 679" d="M744.4,724.407s.938,10.854-1.356,11.984l-29.363-.061s0-3.388,4.716-4.141,13-3.515,14.4-9.664S744.4,724.407,744.4,724.407Z" transform="translate(-713.684 -560.923)" fill="#233862"/>
        <path id="Path_680" data-name="Path 680" d="M718.87,590.117s1.548,19.026,3.368,41.9c2.474,31.065,5.449,69.225,5.744,76.455.508,12.553,2.55,32.633,2.55,32.633s4.841,4.77,14.531,2.759c0,0,8.634-28.663,11.1-58.992.038-.5.077-1,.114-1.5,2.294-30.873,5.861-95.887,5.861-95.887Z" transform="translate(-712.94 -579.952)" fill="#2a4e96"/>
        <path id="Path_681" data-name="Path 681" d="M718.87,590.117s1.548,19.026,3.368,41.9l33.926,52.855c.038-.5.077-1,.114-1.5,2.294-30.873,5.861-95.887,5.861-95.887Z" transform="translate(-712.94 -579.952)" fill="#233862"/>
        <path id="Path_682" data-name="Path 682" d="M725.055,593.321s27.914,68.9,46.269,101.283,24.091,41.416,24.091,41.416,10.515-4.141,11.471-6.965c0,0-7.019-62.513-19.31-77.75-6.946-8.611-12.936-27.715-12.637-36.755.518-15.589-5.336-33.654-5.336-33.654Z" transform="translate(-712.054 -580.896)" fill="#2a4e96"/>
      </g>
      <path id="Path_683" data-name="Path 683" d="M706.326,592.648s-5.212,7.058-5.6,8.941-.834,8.607-.209,10.576,3.873-5.874,5.189-6.778-.822,3.086-.31,3.693,3.023-2.451,4.012-3.5.525-6.267,1.58-9.447S706.326,592.648,706.326,592.648Z" transform="translate(-700.211 -442.725)" fill="#ffb27d"/>
      <path id="Path_684" data-name="Path 684" d="M728.708,502.952s-7.043,65.564-7.671,67.433c-.136.406-.688,2.481-1.467,5.468-1.109,4.265-2.674,10.392-4.161,16.219-2.241,8.8-4.663,16.415-4.663,16.415a6.182,6.182,0,0,1-3.629.469,3.839,3.839,0,0,1-2.694-1.644s.258-32.19,1.829-39.526,6.6-52.417,9.147-58.483S728.708,502.952,728.708,502.952Z" transform="translate(-699.607 -455.584)" fill="#fff"/>
      <path id="Path_685" data-name="Path 685" d="M718.6,570.549c-1.109,4.265-2.674,10.392-4.161,16.219a63.077,63.077,0,0,1-2.944-12.861c-1.414-10.849,2.935-33.966,2.935-33.966Z" transform="translate(-698.634 -450.281)" fill="#dceaff"/>
      <path id="Path_686" data-name="Path 686" d="M773.97,603.845c-10.111,5.7-53.422,5.577-55.427,1.1-4.481-10-5.6-60.8-3.491-76.377,0,0,1.094-23.946,3.491-22.889,16-7.351,41.892-.675,41.892-.675,6.983,2.057,6.382,18.012,8.332,40.415.249,2.887.528,5.9.839,9.006,1.378,13.836,3.382,29.73,6.43,46.5C776.239,602.025,775.47,603,773.97,603.845Z" transform="translate(-698.231 -455.688)" fill="#fff"/>
      <path id="Path_687" data-name="Path 687" d="M746.319,504.515c-.269,4.283-5.855,3.8-12.572,2.265s-4.283-5.492-4.283-5.492.1-3.044.523-6.69c.157-1.325.35-2.736.6-4.1.118-.67.249-1.331.4-1.968.878-3.77,13.417-.133,13.327.882C744.074,492.146,746.054,501.151,746.319,504.515Z" transform="translate(-696.079 -457.892)" fill="#ffb27d"/>
      <path id="Path_688" data-name="Path 688" d="M731.626,509.579l-.53-5.917,7.436,1.4-2.862,5.282Z" transform="translate(-695.783 -455.483)" fill="#233862"/>
      <path id="Path_689" data-name="Path 689" d="M730.106,497.041l-4.443,6.757a9.831,9.831,0,0,0,3.855,7.172l6.075-5.657S731.666,503.815,730.106,497.041Z" transform="translate(-696.562 -456.432)" fill="#dceaff"/>
      <path id="Path_690" data-name="Path 690" d="M734.348,505.178s1.26,4.517,3.692,6.592c0,0,9.485-2.551,11.746-7.41l-4.94-6.378S744.606,502.806,734.348,505.178Z" transform="translate(-695.317 -456.297)" fill="#dceaff"/>
      <path id="Path_691" data-name="Path 691" d="M744.27,491.161a23.269,23.269,0,0,1-14.4,3.062c.157-1.325.35-2.736.6-4.1,1.651-.4,3.033-.652,3.033-.652Z" transform="translate(-695.959 -457.518)" fill="#e2915a"/>
      <path id="Path_692" data-name="Path 692" d="M748.593,489.88c-2.951,8.121-13.72,6.048-18.307,4.744-1.291-.365-2.09-.67-2.09-.67-1.418-.643-1.856-3.117-1.732-6.241.245-6.182,2.687-14.911,4.088-17.013,2.108-3.165,5.623-6.382,16.07-1.9S752.377,479.473,748.593,489.88Z" transform="translate(-696.45 -460.798)" fill="#ffb27d"/>
      <path id="Path_693" data-name="Path 693" d="M756.489,486.436c-3.3,2.689-10.381,7.666-10.381,7.666a12.855,12.855,0,0,0,1.752-3.617,3.562,3.562,0,0,0,.129-1.223,6.751,6.751,0,0,1,.968-3.753c.432-.7.588-1.427.042-1.942-.9-.848-2.424-.07-3.426.616a2.022,2.022,0,0,1-2.209.056l-.013-.008c-2.816-1.764.293-4.873-2-7.454s-12.2-2.934-11.8-4.552c-3.383-1.911-1.251-8.964-1.189-9.337a36.528,36.528,0,0,0,10.916-1.085c4.921-1.236,10.346,1.925,12.063,3.228a2.76,2.76,0,0,0-.273-1.2,2.553,2.553,0,0,1,.732,1.6c.075.075.109.127.085.142a3.268,3.268,0,0,1,1.553.358s-.421-.131-.619.119a.3.3,0,0,1-.085.065C759.322,470.759,759.225,484.2,756.489,486.436Z" transform="translate(-696.278 -461.524)" fill="#bc3f3f"/>
      <path id="Path_694" data-name="Path 694" d="M732.832,486.15s-.529,1.023-3.191.175c0,0-2.236-.712-1.866-1.89A7.531,7.531,0,0,1,732.832,486.15Z" transform="translate(-696.265 -458.241)" fill="#fff"/>
      <path id="Path_695" data-name="Path 695" d="M732.293,508.837s-5.932,74.965-5.848,81.211,6.572,12.849,6.572,12.849,5.173-5.661,6.182-11.636-2.862-81.655-2.862-81.655Z" transform="translate(-696.45 -454.741)" fill="#2a4e96"/>
      <path id="Path_696" data-name="Path 696" d="M768.112,598.941h-.01c-18.03-2.594-12.864-62.271-11.448-62.507s6.6,10.667,6.6,10.667l.5,2.421c1.378,13.836,3.382,29.73,6.43,46.5C770.381,597.121,769.613,598.1,768.112,598.941Z" transform="translate(-692.373 -450.785)" fill="#dceaff"/>
      <g id="Group_711" data-name="Group 711" transform="translate(71.532 154.551)">
        <path id="Rectangle_347" data-name="Rectangle 347" d="M8.219,0H50.286A8.218,8.218,0,0,1,58.5,8.218V27.784A8.218,8.218,0,0,1,50.286,36H8.219A8.219,8.219,0,0,1,0,27.784V8.219A8.219,8.219,0,0,1,8.219,0Z" transform="translate(0 17.213) rotate(-16.225)" fill="#a02e2e"/>
        <path id="Path_697" data-name="Path 697" d="M769.51,621.458l4.865,16.714a9.449,9.449,0,0,0,6.527,6.443,9.253,9.253,0,0,0,3.141.333h.008a9.244,9.244,0,0,0,2.017-.353l38.059-11.078a9.457,9.457,0,0,0,6.421-11.69l-4.863-16.716a9.462,9.462,0,0,0-11.692-6.421L800.888,602.5l-1.037-3.566a3.116,3.116,0,0,0-3.858-2.119l-1.437.417-7.972,2.32-1.98.577a3.116,3.116,0,0,0-2.119,3.858l1.037,3.566-7.592,2.207c-.3.088-.591.19-.875.3l-.007,0h0a9.467,9.467,0,0,0-5.645,6.55v0A9.349,9.349,0,0,0,769.51,621.458Zm29.5-18.411L785.4,607.013l-1.037-3.566a1.164,1.164,0,0,1,.791-1.439l3.42-.995,6.275-1.828,1.692-.492a1.18,1.18,0,0,1,.348-.045,1.166,1.166,0,0,1,1.094.836Z" transform="translate(-761.862 -596.696)" fill="#bc3f3f"/>
      </g>
      <path id="Path_698" data-name="Path 698" d="M785.318,593.269s-1.182,9.887,1.034,9.745,7.641-1.205,8.012-2.908-4.154-9.645-4.154-9.645Z" transform="translate(-688.055 -443.038)" fill="#ffb27d"/>
      <path id="Path_699" data-name="Path 699" d="M785.823,592.9a9.179,9.179,0,0,0-1.842,3.766c-.148,1.659-.956,4.556-.2,4.744s2.147-3.61,2.147-3.61Z" transform="translate(-688.275 -442.689)" fill="#ffb27d"/>
      <path id="Path_700" data-name="Path 700" d="M754.617,504.658s9.577,2.291,17.147,16.835,13.551,43.876,17.165,51.619,6.365,30.972,6.365,30.972a3.552,3.552,0,0,1-2.512,1.577,11.858,11.858,0,0,1-3.063.2s-14.237-22.806-16.282-31c-1.106-4.433-18-39.924-18-39.924Z" transform="translate(-692.411 -455.34)" fill="#fff"/>
    </g>
    <g id="Group_713" data-name="Group 713" transform="translate(104.706 236.939)">
      <path id="Path_701" data-name="Path 701" d="M203.194,728.037,201.759,717.7l6.027-5.037,1.9,13.682Z" transform="translate(-127.489 -451.525)" fill="#ffb27d"/>
      <path id="Path_702" data-name="Path 702" d="M223.618,735.825H199.045a13.492,13.492,0,0,1,.7-6.587c1.23-2.726,3.143-4.409,3.318-6.5,1.562,1.608,3.483,2.642,7.035,2.164.436.705,2.81,4.482,4.264,5.526C215.963,731.585,223.123,731.174,223.618,735.825Z" transform="translate(-127.897 -450.081)" fill="#233862"/>
      <path id="Path_703" data-name="Path 703" d="M220.022,605.747c-1.608,12.927-2.921,25.114-3.992,36.473-5.719,60.52-4.6,97.51-4.6,97.51s-.414,1.1-3.959,1.111a20.284,20.284,0,0,1-3.966-.427s-12.8-39.521-11.816-62.01a34.491,34.491,0,0,1,1-7.28c3.072-11.506-11.366-55.51,4.329-71.9S220.76,599.814,220.022,605.747Z" transform="translate(-129.237 -468.785)" fill="#f99746"/>
      <path id="Path_704" data-name="Path 704" d="M220.022,605.747c-1.608,12.927-2.921,25.114-3.992,36.473l-24.338,36.185a34.491,34.491,0,0,1,1-7.28c3.072-11.506-11.366-55.51,4.329-71.9S220.76,599.814,220.022,605.747Z" transform="translate(-129.237 -468.785)" fill="#ed7d2b"/>
      <path id="Path_705" data-name="Path 705" d="M233.277,497.929s-.592-2.953-1.259-5.207c-.295-1,1.762-7.547,3.185-8.355s5.13,3.606,4.082,6.993c-.54,1.74-1.425,7.4-1.425,7.4Z" transform="translate(-123.154 -484.271)" fill="#ffb27d"/>
      <path id="Path_706" data-name="Path 706" d="M233.547,497.024s-.774-1.712-1.473-1.99-1.448-3.078-1.961-4.188c0,0,.5-.726,1.363.208.528.569,1.707,2.241,1.707,2.241Z" transform="translate(-123.423 -483.366)" fill="#ffb27d"/>
      <path id="Path_707" data-name="Path 707" d="M145.486,505.671c-.151.311-.36.867-.547,1.389q-.005-.214-.007-.422c-.009-1.04-3.894-6.7-5.49-7.056s-3.851,4.948-1.857,7.881c1.024,1.506,3.528,6.66,3.528,6.66l4.139-2.138s.239-1.864.826-2.334.484-3.367.649-4.578C146.728,505.074,146.042,504.524,145.486,505.671Z" transform="translate(-136.802 -482.078)" fill="#ffb27d"/>
      <path id="Path_708" data-name="Path 708" d="M167.025,725.105c-.348-3.312-.433-12.027-.433-12.027s8.881-2.839,8.554-.889c-1.606,9.581-1.171,14.326-1.171,14.326l-3.59,2.145Z" transform="translate(-132.531 -451.692)" fill="#ffb27d"/>
      <path id="Path_709" data-name="Path 709" d="M216.15,603.749s-34.306,94.036-41.058,134.827a6.836,6.836,0,0,1-4.482.718,5.014,5.014,0,0,1-4.218-2.7s-6.2-48.889,6.122-65.863c8.462-11.66-3.651-62.873,16.06-66.98S216.15,603.749,216.15,603.749Z" transform="translate(-132.783 -467.403)" fill="#f99746"/>
      <path id="Path_710" data-name="Path 710" d="M211.409,526.729v0a.9.9,0,0,0-.029-.122c-.2-.828-.42-1.642-.655-2.45v0a55.17,55.17,0,0,0-2.494-6.906,36.656,36.656,0,0,0-1.643-3.28c-.086-.152-.169-.294-.25-.439l0,0c-1.325-2.229-2.688-3.769-3.917-4.243a11.756,11.756,0,0,0-6.455-.269,2.968,2.968,0,0,1,1.231-.823c-1.1,0-3.338,1.42-3.338,1.42-15.8-3.533-14.878,18.818-13.8,23.884s-4.016,7.527-11.189,12.711c-13.692,9.891-13.463,20.375-13.463,20.375.123.051.258.112.4.182.55-1.355,1.718-3.923,2.944-4.466a52.644,52.644,0,0,0-1.314,5.309c2.086,1.15,4.971,2.929,8.105,4.937l0,0c4.194,2.683,8.822,5.772,12.53,8.28a8.526,8.526,0,0,1-.091-3.3l1.182,3.661.154.477c2.367,1.605,4.235,2.888,5.183,3.546.1.066.183.127.261.178.277.19.425.294.425.294-.314-1.294,1.067-4.667,3.386-8.918.159-.3.327-.6.5-.9.749-1.343,1.585-2.759,2.485-4.219.324-.528.651-1.056.991-1.594l0,0c.272-.432.548-.862.832-1.3l0,0c.671-1.038,1.366-2.083,2.075-3.131,1.836-2.712,3.781-5.406,5.7-7.877a69.041,69.041,0,0,1,7.821-8.768c.074-.154.146-.312.209-.472a15.7,15.7,0,0,0,.848-2.7c.066-.282.125-.568.177-.852a37.071,37.071,0,0,0,.575-6.7,37.821,37.821,0,0,1-.085,6.754c-.043.364-.091.7-.146,1.013v0a13.962,13.962,0,0,1-.414,1.777,9.189,9.189,0,0,0,1-1.534,10.613,10.613,0,0,0,.519-1.148C213.51,540.376,213.011,533.334,211.409,526.729Z" transform="translate(-134.135 -480.842)" fill="#163560"/>
      <path id="Path_711" data-name="Path 711" d="M203.627,545.826c.053.015-4.424,3.255-8.221,2.8-3.572-.425-6.476-4.541-6.43-4.559,1.411-.505,1.532-2.565.225-11.143l.676.031,11.374.544s.266,3.515.745,6.792C202.4,543.043,202.954,545.626,203.627,545.826Z" transform="translate(-129.321 -477.295)" fill="#ffb27d"/>
      <path id="Path_712" data-name="Path 712" d="M201.138,533.5s.266,3.515.745,6.792c-6.208.745-10.316-4.408-12.12-7.336Z" transform="translate(-129.208 -477.291)" fill="#ed975d"/>
      <path id="Path_713" data-name="Path 713" d="M189.345,535.036s-4-4.637-5.431-8.9c-1.02-3.042-1.151-14.864,10.739-14.927a15.982,15.982,0,0,1,6.928,1.5c2.782,1.332,6.978,4.474,4.4,15.19l-.552,3.573Z" transform="translate(-130.108 -480.409)" fill="#163560"/>
      <path id="Path_714" data-name="Path 714" d="M223.56,610.674a48.176,48.176,0,0,1-33.384,4.274c-.218-.054-15.3-2.461-15.3-2.461.26-.71,2.209-12.361,2.464-13.013,3.3-8.508,9.322-54.683,14.356-56.96,1.285,1.4,4.959,2.359,8.1,2.079,3.621-.319,4.833-1.884,4.532-3.566,4.006,1.895,7.085,3.655,7.085,3.655C215.077,550.169,223.56,610.674,223.56,610.674Z" transform="translate(-131.343 -476.133)" fill="#fff"/>
      <path id="Path_715" data-name="Path 715" d="M204.11,538.9s-14.593,2.417-15.958-6.693-4.169-14.935,5.09-16.864,11.595,1.276,12.79,4.206S207.87,538.035,204.11,538.9Z" transform="translate(-129.653 -479.9)" fill="#ffb27d"/>
      <path id="Path_716" data-name="Path 716" d="M200.365,514.38s-2.415,11.286-8.326,13.781-8.823,1.245-8.823,1.245a17.6,17.6,0,0,0,4.164-11.131S196.588,509.742,200.365,514.38Z" transform="translate(-130.147 -480.152)" fill="#163560"/>
      <path id="Path_717" data-name="Path 717" d="M197.46,515.366s3.346,1.941,4.42,4.153,2.113,6.94,3.48,6.571c0,0,1.937-7.715-2.065-11.322C199.052,510.945,197.46,515.366,197.46,515.366Z" transform="translate(-128.105 -480.121)" fill="#163560"/>
      <path id="Path_718" data-name="Path 718" d="M242.456,496.5a9.361,9.361,0,0,0-2.609-.806,8.094,8.094,0,0,0-2.292.24s-4.116,25.592-4.423,26.948-17.658,20.9-22.337,20.825c-4.225-.071-9.23,3.191-10.159,3.818,0,0,9.839,20.8,10.329,24.713.534,4.252,5.627,69.735,5.627,69.735s-.3,3.047,5.39,1.409,7.115-2.992,7.115-2.992-5.229-51.553-6.325-67.586a30.662,30.662,0,0,0-1-5.982,6.064,6.064,0,0,1,.98-5.151c7.2-9.879,18.56-25.884,19.194-29.285C242.876,527.391,242.456,496.5,242.456,496.5Z" transform="translate(-127.65 -482.635)" fill="#2b478b"/>
      <path id="Path_719" data-name="Path 719" d="M187.976,735.825H163.4a13.485,13.485,0,0,1,.694-6.587c1.23-2.726,3.144-4.409,3.318-6.5,1.562,1.608,3.483,2.642,7.035,2.164.436.705,2.81,4.482,4.264,5.526C180.321,731.585,187.481,731.174,187.976,735.825Z" transform="translate(-133.007 -450.081)" fill="#233862"/>
      <path id="Path_720" data-name="Path 720" d="M208.11,572.246c-.828-5.1-11.4-25.559-11.4-25.559s-6.684-2-11.083-.4-27.162-11.259-27.891-12.441-12.921-23.9-12.921-23.9a2.826,2.826,0,0,0-2.63.258,2.965,2.965,0,0,0-1.61,2.466s9.409,28.6,11.913,33.027c1.509,2.669,14.2,11.957,24.039,18.914a6.173,6.173,0,0,1,2.557,5.869c-1.323,9.782-1.659,15.289-3.181,32.073-1.262,13.923-1.746,40.878-1.746,40.878s11.011,3.81,18.609,4.315,9.256-7.505,9.256-7.505S208.961,577.484,208.11,572.246Z" transform="translate(-136.261 -480.619)" fill="#2b478b"/>
      <path id="Path_721" data-name="Path 721" d="M197.739,532.1a6.512,6.512,0,0,0,3.867.727c1.434-.215,1.758-1.916,1.758-1.916a5.653,5.653,0,0,0-2.586.006A11.03,11.03,0,0,0,197.739,532.1Z" transform="translate(-128.065 -477.604)" fill="#fff"/>
    </g>
    <g id="Group_715" data-name="Group 715" transform="translate(434.637 163.369)">
      <path id="Path_722" data-name="Path 722" d="M569.79,452.385s-5.466-9.715,0-11.691,7.94-.154,8.2,2.059-2.083,10.933-2.083,10.933Z" transform="translate(-405.003 -417.069)" fill="#ffb27d"/>
      <path id="Path_723" data-name="Path 723" d="M583.134,513.252a176.794,176.794,0,0,1-27.4,2.815,152.956,152.956,0,0,1-21.063-.948q-2.483-.285-4.774-.636c-16.138-2.447-25.049-6.786-25.049-6.786s14.745-30.864,26.655-29.68c13.973,1.393,37.652,13.932,40.005,10.415,2.65-3.962,4.868-37.942,4.868-37.942,6.2-4.243,9.895.229,9.895.229S598.373,510.5,583.134,513.252Z" transform="translate(-413.966 -415.805)" fill="#f99746"/>
      <path id="Path_724" data-name="Path 724" d="M579.855,507.28a176.794,176.794,0,0,1-27.4,2.815,152.956,152.956,0,0,1-21.063-.948c-3.717-11.824-6.39-23.9,1.086-16.619C545.666,505.369,579.855,507.28,579.855,507.28Z" transform="translate(-410.687 -409.833)" fill="#ed7d2b"/>
      <path id="Path_725" data-name="Path 725" d="M503.895,723.7s-1.061,12.269,1.533,13.547l33.192-.069s0-3.83-5.332-4.681-14.7-3.973-16.282-10.925S503.895,723.7,503.895,723.7Z" transform="translate(-414.133 -377.054)" fill="#233862"/>
      <path id="Path_726" data-name="Path 726" d="M530.472,598.044c-.164,8.023-.549,16.3-1.3,23.735-3.584,35.292-4.844,77.933-5.36,86.154C522.915,722.2,520.1,745,520.1,745s-5.591,5.307-16.491,2.775c0,0-9.031-32.838-11.048-67.413-.031-.568-.063-1.138-.091-1.708-.234-4.571-.479-9.8-.728-15.434-1.661-37.752-3.466-93.833-3.466-93.833l41.652-9.78S530.881,578.043,530.472,598.044Z" transform="translate(-416.342 -399.898)" fill="#2a4e96"/>
      <path id="Path_727" data-name="Path 727" d="M530.472,598.044c-10.556,18.212-30.675,51.765-38.735,65.179-1.661-37.752-3.466-93.833-3.466-93.833l41.652-9.78S530.881,578.043,530.472,598.044Z" transform="translate(-416.342 -399.898)" fill="#233862"/>
      <path id="Path_728" data-name="Path 728" d="M434.029,562.369s-6.778,7.97-7.387,10.181-1.7,10.173-1.114,12.565,5.087-6.67,6.727-7.639-1.23,3.605-.67,4.368,3.8-2.669,5.058-3.83,1.137-7.412,2.653-11.11S434.029,562.369,434.029,562.369Z" transform="translate(-425.362 -399.503)" fill="#ffb27d"/>
      <path id="Path_729" data-name="Path 729" d="M432.166,711.227s-5.908,5.392-4.755,9.222,6.484,6.385,7.2,11.067,3.6,7.235,6.2,7.235h12.366s1.909-3.294-2.7-4.288-6.349-6.494-6.061-11.6a90.041,90.041,0,0,0-.432-11.918l-9.8-2.27Z" transform="translate(-425.089 -378.527)" fill="#233862"/>
      <path id="Path_730" data-name="Path 730" d="M531.491,570.5s-38.99,83.425-59.739,120.029-27.233,46.82-27.233,46.82-11.888-4.682-12.968-7.874c0,0,7.935-70.667,21.829-87.893,7.852-9.734,17.075-38.945,17.507-49.16s9.541-34.6,9.541-34.6Z" transform="translate(-424.474 -400.154)" fill="#2a4e96"/>
      <path id="Path_731" data-name="Path 731" d="M537.657,587.526a67.575,67.575,0,0,1-37.451,9.4c-9.631-.421-28.734-3.151-31.818-10.811-.724-1.8-.193-4.08.893-7.583,2.818-9.1,9.387-26.442,7.4-64.881a63.022,63.022,0,0,1,.258-10.088c2.067-18.934,12.918-30.147,23.406-33.811,25.577-8.94,34.1,3.445,34.1,3.445s11.306,8.957,13.01,27.651C550.869,538.243,537.657,587.526,537.657,587.526Z" transform="translate(-419.24 -413.246)" fill="#f99746"/>
      <path id="Path_732" data-name="Path 732" d="M502.855,470.442s11.736,7.139,24.465,5.12c0,0,2.517-.64,1.279-3.595a37.291,37.291,0,0,0,1.13-3.941,59.358,59.358,0,0,0,1.458-6.43L523.963,454l-6.842-7.256C515.231,464.09,502.855,470.442,502.855,470.442Z" transform="translate(-414.251 -416.08)" fill="#ffb27d"/>
      <path id="Path_733" data-name="Path 733" d="M514.374,452.5s3.931,10.508,13.7,14.7c1.117-4.077,1.843-8.343,1.843-8.343l-7.609-5.68Z" transform="translate(-412.6 -415.255)" fill="#ed985f"/>
      <path id="Path_734" data-name="Path 734" d="M537.943,464.006s-22.4,2.8-23.974-10.966-5.522-22.675,8.714-25.046,17.62,2.577,19.281,7.048S543.731,462.923,537.943,464.006Z" transform="translate(-412.904 -418.856)" fill="#ffb27d"/>
      <path id="Path_735" data-name="Path 735" d="M507.781,426.824c-.193-.239-.653-.444-1.688-.54a4.207,4.207,0,0,1,1.959-.472c.271-1.435,1.135-3.958,3.642-4.485a3.117,3.117,0,0,0-1.594,2.188c2.988-2.846,9.232-4.762,26.243-2.77,22.42,2.625,14.465,16.744,11.489,18.349s-10.126-3.375-15.566-3.15-6.769,8.024-8.65,9.03-1.085-.869-3.532-2.088-2.84,2.9-2.223,5.606-2.937,6.118-2.937,6.118l-3.316-3.853c-3.316-3.854-5.978-19.746-4.278-23.048C507.479,427.417,507.627,427.121,507.781,426.824Z" transform="translate(-413.787 -419.925)" fill="#2c3a64"/>
      <g id="Group_714" data-name="Group 714" transform="translate(122.233 11.072)">
        <path id="Path_736" data-name="Path 736" d="M572.207,446.22l-38.031.339-.26-5.721,37.913-2.938Z" transform="translate(-532.031 -428.421)" fill="#0170aa"/>
        <path id="Path_737" data-name="Path 737" d="M597.766,447.643l-41.407.6-.473-10.4,41.289-3.2Z" transform="translate(-528.881 -428.888)" fill="#0170aa"/>
        <path id="Path_738" data-name="Path 738" d="M621.392,448.879l-34.917.043-.638-14.043,34.775-3.164Z" transform="translate(-524.587 -429.307)" fill="#007fc1"/>
        <path id="Path_739" data-name="Path 739" d="M617.729,451.551h0a1.953,1.953,0,0,0,1.861-2.04l-.82-18.039a1.951,1.951,0,0,0-2.039-1.861h0a1.952,1.952,0,0,0-1.861,2.039l.819,18.039A1.955,1.955,0,0,0,617.729,451.551Z" transform="translate(-520.425 -429.609)" fill="#007fc1"/>
        <path id="Path_740" data-name="Path 740" d="M534.294,447.563h0a1.735,1.735,0,0,1-1.812-1.654l-.213-4.681a1.735,1.735,0,0,1,1.656-1.812h0a1.736,1.736,0,0,1,1.812,1.654l.213,4.681A1.735,1.735,0,0,1,534.294,447.563Z" transform="translate(-532.267 -428.204)" fill="#0170aa"/>
      </g>
      <path id="Path_741" data-name="Path 741" d="M469.128,573.895c2.818-9.1,9.387-26.442,7.4-64.881a63.022,63.022,0,0,1,.258-10.088h0c8.418-.724,21.285,8.376,21.285,8.376S490.152,555.614,469.128,573.895Z" transform="translate(-419.087 -408.605)" fill="#ed7d2b"/>
      <path id="Path_742" data-name="Path 742" d="M513.219,467.471s-21.583,3.71-32.841,17.454-29.366,33.121-33.647,39.906S430.564,577.8,430.564,577.8s.784,1.484,4.062,2.348a7.732,7.732,0,0,0,5.414-.455s15.748-26.951,21.674-40.414c2.462-5.593,45.047-27.746,61.057-25.45C529.059,514.728,513.219,467.471,513.219,467.471Z" transform="translate(-424.616 -413.108)" fill="#f99746"/>
      <path id="Path_743" data-name="Path 743" d="M567.208,436.658s4.642,2.839,7.419,1.637,2.531-2.3,2.531-2.3S568.77,433.667,567.208,436.658Z" transform="translate(-405.025 -417.745)" fill="#ffb27d"/>
      <path id="Path_744" data-name="Path 744" d="M531.7,480.772s-9.472,59.8-76.678,77.213l-7.32,14.444,12.861,2.177s76.511-22.167,75.481-94.892Z" transform="translate(-422.158 -411.353)" fill="#bc3f3f"/>
      <path id="Path_745" data-name="Path 745" d="M520.277,472.291l-3.1.3v4.491l4.57,4.751,4.346-1.057v-6.232l-3.124-2.256Z" transform="translate(-412.198 -412.417)" fill="#a02e2e"/>
      <path id="Path_746" data-name="Path 746" d="M510.479,461.89s-3,.677-9.867,6.381c0,0,6.827,14.492,21.231,16.228,0,0-.232-6.725.808-10.717C522.652,473.782,511.235,469.695,510.479,461.89Z" transform="translate(-414.573 -413.909)" fill="#ed7d2b"/>
      <path id="Path_747" data-name="Path 747" d="M519.888,472.791s7.029,3.731,7.55,9.545c0,0,2.687-4.257,1.908-7.2a24.012,24.012,0,0,0-3.189-6.326S526.4,472.356,519.888,472.791Z" transform="translate(-411.809 -412.917)" fill="#ed7d2b"/>
    </g>
    <path id="Path_748" data-name="Path 748" d="M1025.837,745.392H53.372c-4.5,0-8.147-2.818-8.147-6.3s3.647-6.3,8.147-6.3h972.466c4.5,0,8.146,2.818,8.146,6.3S1030.336,745.392,1025.837,745.392Z" transform="translate(-45.225 -211.699)" fill="#007fc1"/>
  </g>
</svg>
